^C:\USERS\MAGSHIMIM\DOCUMENTS\PROGRAMMING\ADVANCEDPROGRAMMING\LESSON13\LESSON 13\MAGSHIDOCS\HELPER.CPP
/c /ZI /nologo /W3 /WX- /diagnostics:classic /sdl /Od /Oy- /D _MBCS /Gm- /EHsc /RTC1 /MDd /GS /fp:precise /permissive- /Zc:wchar_t /Zc:forScope /Zc:inline /Fo"DEBUG\\" /Fd"DEBUG\VC141.PDB" /Gd /TP /analyze- /FC C:\USERS\MAGSHIMIM\DOCUMENTS\PROGRAMMING\ADVANCEDPROGRAMMING\LESSON13\LESSON 13\MAGSHIDOCS\HELPER.CPP
^C:\USERS\MAGSHIMIM\DOCUMENTS\PROGRAMMING\ADVANCEDPROGRAMMING\LESSON13\LESSON 13\MAGSHIDOCS\WSAINITIALIZER.CPP
/c /ZI /nologo /W3 /WX- /diagnostics:classic /sdl /Od /Oy- /D _MBCS /Gm- /EHsc /RTC1 /MDd /GS /fp:precise /permissive- /Zc:wchar_t /Zc:forScope /Zc:inline /Fo"DEBUG\\" /Fd"DEBUG\VC141.PDB" /Gd /TP /analyze- /FC C:\USERS\MAGSHIMIM\DOCUMENTS\PROGRAMMING\ADVANCEDPROGRAMMING\LESSON13\LESSON 13\MAGSHIDOCS\WSAINITIALIZER.CPP
^C:\USERS\MAGSHIMIM\DOCUMENTS\PROGRAMMING\ADVANCEDPROGRAMMING\LESSON13\LESSON 13\MAGSHIDOCS\SOURCE.CPP
/c /ZI /nologo /W3 /WX- /diagnostics:classic /sdl /Od /Oy- /D _MBCS /Gm- /EHsc /RTC1 /MDd /GS /fp:precise /permissive- /Zc:wchar_t /Zc:forScope /Zc:inline /Fo"DEBUG\\" /Fd"DEBUG\VC141.PDB" /Gd /TP /analyze- /FC C:\USERS\MAGSHIMIM\DOCUMENTS\PROGRAMMING\ADVANCEDPROGRAMMING\LESSON13\LESSON 13\MAGSHIDOCS\SOURCE.CPP
^C:\USERS\MAGSHIMIM\DOCUMENTS\PROGRAMMING\ADVANCEDPROGRAMMING\LESSON13\LESSON 13\MAGSHIDOCS\SERVER.CPP
/c /ZI /nologo /W3 /WX- /diagnostics:classic /sdl /Od /Oy- /D _MBCS /Gm- /EHsc /RTC1 /MDd /GS /fp:precise /permissive- /Zc:wchar_t /Zc:forScope /Zc:inline /Fo"DEBUG\\" /Fd"DEBUG\VC141.PDB" /Gd /TP /analyze- /FC C:\USERS\MAGSHIMIM\DOCUMENTS\PROGRAMMING\ADVANCEDPROGRAMMING\LESSON13\LESSON 13\MAGSHIDOCS\SERVER.CPP
